…
df$country <- factor(df$country, levels = levels(gapminder$country))
```

There are different types of joins (<https://dplyr.tidyverse.org/reference/join.html>) Mutating joins combine variables from the two data.frames:

-   `inner_join()` return all rows from x where there are matching values in y, and all columns from x and y. If there are multiple matches between x and y, all combination of the matches are returned.
-   `left_join()` return all rows from x, and all columns from x and y. Rows in x with no match in y will have NA values in the new columns. If there are multiple matches between x and y, all combinations of the matches are returned.
-   `right_join()` return all rows from y, and all columns from x and y. Rows in y with no match in x will have NA values in the new columns. If there are multiple matches between x and y, all combinations of the matches are returned.
-   `full_join()` return all rows and all columns from both x and y. Where there are not matching values, returns NA for the one missing.

``` r
gapminder %>% inner_join(df, by = "country")
```

    ## # A tibble: 60 x 9
    ##    country continent  year lifeExp      pop gdpPercap language hemisphere
    ##    <fct>   <fct>     <int>   <dbl>    <int>     <dbl> <fct>    <fct>     
    ##  1 Canada  Americas   1952    68.8 14785584    11367. English  N         
    ##  2 Canada  Americas   1957    70.0 17010154    12490. English  N         
    ##  3 Canada  Americas   1962    71.3 18985849    13462. English  N         
    ##  4 Canada  Americas   1967    72.1 20819767    16077. English  N         
    ##  5 Canada  Americas   1972    72.9 22284500    18971. English  N         
    ##  6 Canada  Americas   1977    74.2 23796400    22091. English  N         
    ##  7 Canada  Americas   1982    75.8 25201900    22899. English  N         
    ##  8 Canada  Americas   1987    76.9 26549700    26627. English  N         
    ##  9 Canada  Americas   1992    78.0 28523502    26343. English  N         
    ## 10 Canada  Americas   1997    78.6 30305843    28955. English  N         
    ## # ... with 50 more rows, and 1 more variable: capitalcity <fct>

``` r
gapminder %>% left_join(df, by = "country")
```

    ## # A tibble: 1,704 x 9
    ##    country   continent  year lifeExp     pop gdpPercap language hemisphere
    ##    <fct>     <fct>     <int>   <dbl>   <int>     <dbl> <fct>    <fct>     
    ##  1 Afghanis~ Asia       1952    28.8  8.43e6      779. <NA>     <NA>      
    ##  2 Afghanis~ Asia       1957    30.3  9.24e6      821. <NA>     <NA>      
    ##  3 Afghanis~ Asia       1962    32.0  1.03e7      853. <NA>     <NA>      
    ##  4 Afghanis~ Asia       1967    34.0  1.15e7      836. <NA>     <NA>      
    ##  5 Afghanis~ Asia       1972    36.1  1.31e7      740. <NA>     <NA>      
    ##  6 Afghanis~ Asia       1977    38.4  1.49e7      786. <NA>     <NA>      
    ##  7 Afghanis~ Asia       1982    39.9  1.29e7      978. <NA>     <NA>      
    ##  8 Afghanis~ Asia       1987    40.8  1.39e7      852. <NA>     <NA>      
    ##  9 Afghanis~ Asia       1992    41.7  1.63e7      649. <NA>     <NA>      
    ## 10 Afghanis~ Asia       1997    41.8  2.22e7      635. <NA>     <NA>      
    ## # ... with 1,694 more rows, and 1 more variable: capitalcity <fct>

``` r
gapminder %>% right_join(df, by = "country")
```

    ## # A tibble: 61 x 9
    ##    country continent  year lifeExp      pop gdpPercap language hemisphere
    ##    <fct>   <fct>     <int>   <dbl>    <int>     <dbl> <fct>    <fct>     
    ##  1 Canada  Americas   1952    68.8 14785584    11367. English  N         
    ##  2 Canada  Americas   1957    70.0 17010154    12490. English  N         
    ##  3 Canada  Americas   1962    71.3 18985849    13462. English  N         
    ##  4 Canada  Americas   1967    72.1 20819767    16077. English  N         
    ##  5 Canada  Americas   1972    72.9 22284500    18971. English  N         
    ##  6 Canada  Americas   1977    74.2 23796400    22091. English  N         
    ##  7 Canada  Americas   1982    75.8 25201900    22899. English  N         
    ##  8 Canada  Americas   1987    76.9 26549700    26627. English  N         
    ##  9 Canada  Americas   1992    78.0 28523502    26343. English  N         
    ## 10 Canada  Americas   1997    78.6 30305843    28955. English  N         
    ## # ... with 51 more rows, and 1 more variable: capitalcity <fct>

``` r
gapminder %>% full_join(df, by = "country")
```

    ## # A tibble: 1,705 x 9
    ##    country   continent  year lifeExp     pop gdpPercap language hemisphere
    ##    <fct>     <fct>     <int>   <dbl>   <int>     <dbl> <fct>    <fct>     
    ##  1 Afghanis~ Asia       1952    28.8  8.43e6      779. <NA>     <NA>      
    ##  2 Afghanis~ Asia       1957    30.3  9.24e6      821. <NA>     <NA>      
    ##  3 Afghanis~ Asia       1962    32.0  1.03e7      853. <NA>     <NA>      
    ##  4 Afghanis~ Asia       1967    34.0  1.15e7      836. <NA>     <NA>      
    ##  5 Afghanis~ Asia       1972    36.1  1.31e7      740. <NA>     <NA>      
    ##  6 Afghanis~ Asia       1977    38.4  1.49e7      786. <NA>     <NA>      
    ##  7 Afghanis~ Asia       1982    39.9  1.29e7      978. <NA>     <NA>      
    ##  8 Afghanis~ Asia       1987    40.8  1.39e7      852. <NA>     <NA>      
    ##  9 Afghanis~ Asia       1992    41.7  1.63e7      649. <NA>     <NA>      
    ## 10 Afghanis~ Asia       1997    41.8  2.22e7      635. <NA>     <NA>      
    ## # ... with 1,695 more rows, and 1 more variable: capitalcity <fct>
…
